	  Activity 			Total duration in hours
------------------------------------------------------------------------
       Leaving	 		 27 hours:44 minutes:44 seconds

     Breakfast	 		 02 hours:58 minutes:08 seconds

       Sleeping 		 131 hours:03 minutes:31 seconds

         Snack	 		 00 hours:06 minutes:01 seconds

      Grooming	 		 02 hours:40 minutes:42 seconds

     Showering	 		 01 hours:34 minutes:09 seconds

  Spare_Time/TV 		 142 hours:28 minutes:55 seconds

     Toileting	 		 02 hours:20 minutes:34 seconds

          Lunch 		 05 hours:13 minutes:31 seconds

